EXAMEN PRÁCTICO MÓDULO 2 - SECCIÓN B
…
El análisis incluirá enfoques numéricos (valores medios, máximos, etc) y gráficos que permitan de forma visual determinar el comportamiento o relaciones de diferentes variables.

# Sorted by max value Amount  of "Country y CustomerID"
Retail %>%
  group_by(Country, CustomerID) %>%
  summarize( 
    num_val = n(),
    Amount_max = max(Amount),
    Amount_med = mean(Amount),
    Amount_std = sd(Amount)
  ) %>%
  arrange(desc(Amount_max))

## # A tibble: 2,999 x 6
## # Groups:   Country [33]
##    Country        CustomerID num_val Amount_max Amount_med Amount_std
##    <fct>               <int>   <int>      <dbl>      <dbl>      <dbl>
##  1 United Kingdom      16446       1   53537695  53537695        NaN 
##  2 United Kingdom      15749       5    2064582   1097440.    660033.
##  3 United Kingdom      17450     105    1255752     82474.    202459.
##  4 Japan               12755       4    1026720    257427     512862.
##  5 United Kingdom      15195       1     979992    979992        NaN 
##  6 United Kingdom      16210      72     951360     58128.    155548.
##  7 United Kingdom      18102     232     816000    131712.    161384.
##  8 United Kingdom      16333      30     703800     83064     140453.
##  9 United Kingdom      16000       9     610080    211313.    217807.
## 10 United Kingdom      12931      62     506688     62624.     87749.
## # ... with 2,989 more rows

# Sorted by max value Quantity  of "Country y CustomerID"
Retail %>%
  group_by(Country, CustomerID) %>%
  summarize( 
    num_val = n(),
    Quantity_max = max(Quantity),
    Quantity_med = mean(Quantity),
    Quantity_std = sd(Quantity)
  ) %>%
  arrange(desc(Quantity_max))

## # A tibble: 2,999 x 6
## # Groups:   Country [33]
##    Country        CustomerID num_val Quantity_max Quantity_med Quantity_std
##    <fct>               <int>   <int>        <int>        <dbl>        <dbl>
##  1 United Kingdom      16446       1        80995       80995          NaN 
##  2 United Kingdom      15749       5         3114        1803.         910.
##  3 United Kingdom      16308       2         3000        2500          707.
##  4 United Kingdom      12931      62         2880         374.         436.
##  5 United Kingdom      16754       2         2880        2140         1047.
##  6 United Kingdom      16333      30         2592         757.         586.
##  7 United Kingdom      16029     114         2400         199.         325.
##  8 United Kingdom      15299       5         1824         493.         747.
##  9 United Kingdom      12875       1         1728        1728          NaN 
## 10 United Kingdom      13694     183         1600         136.         184.
## # ... with 2,989 more rows

# Sorted by max value Amount of "Description"
Retail %>%
  group_by(Description) %>%
  summarize( 
    num_val = n(),
    Amount_max = max(Amount),
    Amount_med = mean(Amount),
    Amount_std = sd(Amount)
  ) %>%
  arrange(desc(Amount_max))

## # A tibble: 3,686 x 5
##    Description                          num_val Amount_max Amount_med Amount_std
##    <fct>                                  <int>      <dbl>      <dbl>      <dbl>
##  1 "PAPER CRAFT , LITTLE BIRDIE"              1   53537695  53537695        NaN 
##  2 "FAIRY CAKE FLANNEL ASSORTED COLOUR"      79    2064582     29727.    231921.
##  3 "WHITE HANGING HEART T-LIGHT HOLDER"     901    1331700     14213.     66991.
##  4 "HEART OF WICKER LARGE"                  383    1255752      9407.     68202.
##  5 "ROUND SNACK BOXES SET OF 4 FRUITS "     194    1026720     12027.     74165.
##  6 "METAL SIGN TAKE IT OR LEAVE IT "        168     979992      9612.     75502.
##  7 "BLACK RECORD COVER FRAME"               139     951360     46966.    116920.
##  8 "DOORMAT FAIRY CAKE"                     111     921920     19100.     94670.
##  9 "TEA TIME TEA TOWELS "                     1     897000    897000        NaN 
## 10 "RED HANGING HEART T-LIGHT HOLDER"       305     841940     10388.     54511.
## # ... with 3,676 more rows

# Sorted by max value Quantity of "Description"
Retail %>%
  group_by(Description) %>%
  summarize( 
    num_val = n(),
    Quantity_max = max(Amount),
    Quantity_med = mean(Amount),
    Quantity_std = sd(Amount)
  ) %>%
  arrange(desc(Quantity_max))

## # A tibble: 3,686 x 5
##    Description                    num_val Quantity_max Quantity_med Quantity_std
##    <fct>                            <int>        <dbl>        <dbl>        <dbl>
##  1 "PAPER CRAFT , LITTLE BIRDIE"        1     53537695    53537695          NaN 
##  2 "FAIRY CAKE FLANNEL ASSORTED ~      79      2064582       29727.      231921.
##  3 "WHITE HANGING HEART T-LIGHT ~     901      1331700       14213.       66991.
##  4 "HEART OF WICKER LARGE"            383      1255752        9407.       68202.
##  5 "ROUND SNACK BOXES SET OF 4 F~     194      1026720       12027.       74165.
##  6 "METAL SIGN TAKE IT OR LEAVE ~     168       979992        9612.       75502.
##  7 "BLACK RECORD COVER FRAME"         139       951360       46966.      116920.
##  8 "DOORMAT FAIRY CAKE"               111       921920       19100.       94670.
##  9 "TEA TIME TEA TOWELS "               1       897000      897000          NaN 
## 10 "RED HANGING HEART T-LIGHT HO~     305       841940       10388.       54511.
## # ... with 3,676 more rows

Ventas por páis, por fecha, por cliente, ticket medio.

# Ventas por páis
(R1 <- Retail %>%
  group_by(Country) %>%
  summarize( 
    sum_amount = sum(Amount))%>%
  arrange(desc(sum_amount)))

## # A tibble: 33 x 2
##    Country        sum_amount
##    <fct>               <dbl>
##  1 United Kingdom  565690922
##  2 EIRE             14433180
##  3 Germany          14069392
##  4 France           12276460
##  5 Netherlands      12234871
##  6 Australia         8435527
##  7 Switzerland       4582963
##  8 Spain             4305027
##  9 Japan             3582548
## 10 Belgium           2485238
## # ... with 23 more rows
…
#Ventas por  cliente
Retail %>%
group_by(CustomerID) %>%
  summarize( 
    sum_amount = sum(Amount)
  ) %>%
  arrange(desc(sum_amount))

## # A tibble: 2,997 x 2
##    CustomerID sum_amount
##         <int>      <dbl>
##  1      16446   53537695
##  2      18102   30557226
##  3      14646   11971133
##  4      14911    8933816
##  5      17450    8659734
##  6      12415    7694671
##  7      17511    7378800
##  8      16029    6616354
##  9      16684    5837186
## 10      15749    5487202
## # ... with 2,987 more rows

#Ventas por fecha
Retail %>%
  group_by(InvoiceDate) %>%
  summarize( 
    sum_amount = sum(Amount, na.rm = TRUE), 
  ) %>%
  arrange(desc(sum_amount))

## # A tibble: 127 x 2
##    InvoiceDate sum_amount
##    <date>           <dbl>
##  1 2011-09-12    56202749
##  2 2011-11-01    13207482
##  3 2011-05-10    12560694
##  4 2011-10-11    11769959
##  5 2011-03-10    11460066
##  6 2011-07-12    11231244
##  7 2011-03-11    10809711
##  8 2010-07-12    10627485
##  9 2011-04-11     9673284
## 10 2011-08-12     9636653
## # ... with 117 more rows

# ticet medio
Retail %>%
  group_by(Country, CustomerID) %>%
  summarize( 
    ticket_medio = mean(UnitPrice)
  ) %>%
  arrange(desc(ticket_medio))

## # A tibble: 2,999 x 3
## # Groups:   Country [33]
##    Country        CustomerID ticket_medio
##    <fct>               <int>        <dbl>
##  1 United Kingdom      13747        1594 
##  2 United Kingdom      18087        1550 
##  3 United Kingdom      17500        1520.
##  4 United Kingdom      15940        1519 
##  5 United Kingdom      13900        1514 
##  6 United Kingdom      14473        1514 
##  7 United Kingdom      15759        1514 
##  8 United Kingdom      16462        1514 
##  9 United Kingdom      14338        1508 
## 10 United Kingdom      14589        1462 
## # ... with 2,989 more rows
…
Con las fechas y los clientes, se puede calcular cosas como el tiempo medio entre compras, si este tiempo medio se mantiene, fluctúa.

Retail%>%group_by(InvoiceDate, CustomerID)%>%
  summarise(
    time_med = mean(InvoiceDate)
  )

## # A tibble: 7,171 x 3
## # Groups:   InvoiceDate [127]
##    InvoiceDate CustomerID time_med  
##    <date>           <int> <date>    
##  1 2010-01-12       12431 2010-01-12
##  2 2010-01-12       12433 2010-01-12
##  3 2010-01-12       12583 2010-01-12
##  4 2010-01-12       12662 2010-01-12
##  5 2010-01-12       12748 2010-01-12
##  6 2010-01-12       12791 2010-01-12
##  7 2010-01-12       12838 2010-01-12
##  8 2010-01-12       12868 2010-01-12
##  9 2010-01-12       12921 2010-01-12
## 10 2010-01-12       12947 2010-01-12
## # ... with 7,161 more rows
